<svg width="28" height="25" viewBox="0 0 28 25" fill="none" xmlns="http://www.w3.org/2000/svg">
<path fill-rule="evenodd" clip-rule="evenodd" d="M24.3632 7.25931C24.4404 7.33188 24.5016 7.41809 24.5434 7.513C24.5851 7.60792 24.6066 7.70967 24.6066 7.81243C24.6066 7.91519 24.5851 8.01694 24.5434 8.11186C24.5016 8.20677 24.4404 8.29299 24.3632 8.36556L14.42 17.7406C14.343 17.8133 14.2516 17.871 14.1509 17.9104C14.0503 17.9498 13.9424 17.9701 13.8334 17.9701C13.7244 17.9701 13.6165 17.9498 13.5158 17.9104C13.4151 17.871 13.3237 17.8133 13.2467 17.7406L3.30354 8.36556C3.14795 8.21886 3.06054 8.01989 3.06054 7.81243C3.06054 7.60497 3.14795 7.406 3.30354 7.25931C3.45913 7.11261 3.67015 7.03019 3.89019 7.03019C4.11022 7.03019 4.32125 7.11261 4.47684 7.25931L13.8334 16.0827L23.1899 7.25931C23.2669 7.18655 23.3583 7.12883 23.459 7.08944C23.5596 7.05006 23.6676 7.02979 23.7765 7.02979C23.8855 7.02979 23.9935 7.05006 24.0941 7.08944C24.1948 7.12883 24.2862 7.18655 24.3632 7.25931Z" fill="#2EA774"/>
</svg>
