<svg width="30" height="30" viewBox="0 0 30 30" fill="none" xmlns="http://www.w3.org/2000/svg">
<path d="M19.0594 20.1375L21.1594 18.0375C21.4423 17.7581 21.8001 17.5669 22.1895 17.487C22.5789 17.4072 22.9832 17.4421 23.3532 17.5875L25.9125 18.6094C26.2864 18.7611 26.607 19.0202 26.8339 19.3538C27.0608 19.6875 27.1838 20.0809 27.1875 20.4844V25.1719C27.1854 25.4463 27.1277 25.7175 27.0179 25.9691C26.9082 26.2207 26.7486 26.4475 26.5489 26.6358C26.3492 26.8241 26.1135 26.9701 25.8559 27.0649C25.5983 27.1597 25.3242 27.2014 25.05 27.1875C7.11566 26.0719 3.49691 10.8844 2.81253 5.07185C2.78076 4.78642 2.80979 4.49749 2.8977 4.22408C2.98562 3.95067 3.13042 3.69897 3.3226 3.48554C3.51477 3.27211 3.74996 3.10179 4.01268 2.98579C4.27541 2.86978 4.55972 2.81071 4.84691 2.81248H9.37503C9.77911 2.81367 10.1736 2.93573 10.5077 3.16294C10.8419 3.39016 11.1004 3.71214 11.25 4.08748L12.2719 6.64685C12.4221 7.01535 12.4605 7.41995 12.3821 7.81011C12.3037 8.20027 12.1122 8.55869 11.8313 8.8406L9.73128 10.9406C9.73128 10.9406 10.9407 19.125 19.0594 20.1375Z" fill="#3590D5"/>
</svg>
